{
  "$schema":"http://schema.management.azure.com/schemas/2015-01-01-preview/deploymentTemplate.json",
  "contentVersion":"1.0.0.0",
  "parameters": {
    "existingVMSSName": {
      "type": "string",
      "metadata": {
        "description": "Name of existing VM Scale Set"
      }
    },
    "newCapacity": {
      "type": "int",
      "metadata": {
        "description": "Number of desired VM instances"
      }
    },
    "newSize": {
      "type": "string",
      "metadata": {
        "description": "Size of desired VM instances"
      }
    }
  },
  "resources": [
    {
      "type": "Microsoft.Compute/virtualMachineScaleSets",
      "apiVersion": "2015-06-15",
      "name": "[parameters('existingVMSSName')]",
      "location": "[resourceGroup().location]",
      "sku": {
        "name": "[parameters('newSize')]",
        "tier": "Basic",
        "capacity": "[parameters('newCapacity')]"
      }
    },
    {
      "type": "Microsoft.Insights/autoscaleSettings",
      "apiVersion": "2015-04-01",
      "name": "autoscalewad",
      "location": "[resourceGroup().location]",
      "dependsOn": [
        "[concat('Microsoft.Compute/virtualMachineScaleSets/', parameters('existingVMSSName'))]"
      ],
      "properties": {
        "name": "autoscalewad",
        "targetResourceUri": "[concat('/subscriptions/',subscription().subscriptionId, '/resourceGroups/',  resourceGroup().name, '/providers/Microsoft.Compute/virtualMachineScaleSets/', parameters('existingVMSSName'))]",
        "enabled": true,
        "profiles": [
          {
            "name": "Profile1",
            "capacity": {
              "minimum": "2",
              "maximum": "10",
              "default": "2"
            },
            "rules": [
              {
                "metricTrigger": {
                  "metricName": "\\Processor\\PercentProcessorTime",
                  "metricNamespace": "",
                  "metricResourceUri": "[concat('/subscriptions/',subscription().subscriptionId, '/resourceGroups/',  resourceGroup().name, '/providers/Microsoft.Compute/virtualMachineScaleSets/', parameters('existingVMSSName'))]",
                  "timeGrain": "PT1M",
                  "statistic": "Average",
                  "timeWindow": "PT5M",
                  "timeAggregation": "Average",
                  "operator": "GreaterThan",
                  "threshold": 80.0
                },
                "scaleAction": {
                  "direction": "Increase",
                  "type": "ChangeCount",
                  "value": "1",
                  "cooldown": "PT1M"
                }
              },
              {
                "metricTrigger": {
                  "metricName": "\\Processor\\PercentProcessorTime",
                  "metricNamespace": "",
                  "metricResourceUri": "[concat('/subscriptions/',subscription().subscriptionId, '/resourceGroups/',  resourceGroup().name, '/providers/Microsoft.Compute/virtualMachineScaleSets/', parameters('existingVMSSName'))]",
                  "timeGrain": "PT1M",
                  "statistic": "Average",
                  "timeWindow": "PT5M",
                  "timeAggregation": "Average",
                  "operator": "LessThan",
                  "threshold": 50.0
                },
                "scaleAction": {
                  "direction": "Decrease",
                  "type": "ChangeCount",
                  "value": "1",
                  "cooldown": "PT1M"
                }
              }
            ]
          }
        ]
      }
    }
  ]
}
